Place,Name,Sex,BirthDate,BirthYear,Age,Country,State,Equipment,Division,BodyweightKg,WeightClassKg,Squat1Kg,Squat2Kg,Squat3Kg,Best3SquatKg,Bench1Kg,Bench2Kg,Bench3Kg,Best3BenchKg,Deadlift1Kg,Deadlift2Kg,Deadlift3Kg,Best3DeadliftKg,TotalKg,Event,Tested
1,Addison Lawler,F,,2008,15,,IL,Raw,J13-15,54.7,56,-50,60,-70,60,27.5,35,-37.5,35,60,70,80,80,175,SBD,Yes
1,Marley Parrish,F,,2009,13,,IL,Raw,J13-15,73.2,75,125,137.5,142.5,142.5,80,90,100,100,165,182.5,-190,182.5,425,SBD,Yes
1,Molly Merrill,F,,2006,16,,IL,Raw,Open,59,60,-60,65,70,70,-52.5,55,-60,55,82.5,90,100,100,225,SBD,Yes
1,Raechel Wright,F,,1993,30,,IL,Raw,Open,61.6,67.5,40,55,57.5,57.5,25,30,37.5,37.5,67.5,90,-105,90,185,SBD,Yes
1,Marley Parrish,F,,2009,13,,IL,Raw,Open,73.2,75,125,137.5,142.5,142.5,80,90,100,100,165,182.5,-190,182.5,425,SBD,Yes
2,Mikah Merrill,F,,2006,16,,IL,Raw,Open,70.1,75,85,90,100,100,60,65,-70,65,112.5,125,135,135,300,SBD,Yes
1,Bridgett Brown,F,,1988,35,,IL,Raw,Open,79.4,82.5,45,-47.5,-47.5,45,-42.5,42.5,-45,42.5,75,80,85,85,172.5,SBD,Yes
1,Jacinda Shoot,F,,1996,26,,IL,Raw,Open,103.3,110,152.5,162.5,170,170,87.5,92.5,-95,92.5,157.5,165,-175,165,427.5,SBD,Yes
1,Monica Brennan,F,,1987,36,,IL,Raw,S35-39,107.9,110,-100,100,107.5,107.5,65,-72.5,-72.5,65,110,120,125,125,297.5,SBD,Yes
1,Monica Brennan,F,,1987,36,,IL,Raw,S35-39,107.9,110,,,,,,,,,110,120,125,125,125,D,Yes
1,Madison Sapp,F,,1997,25,,IL,Wraps,Open,119.3,125,202.5,215,227.5,227.5,87.5,92.5,-97.5,92.5,157.5,170,182.5,182.5,502.5,SBD,Yes
1,Ben Henry,M,,2007,15,,IL,Raw,J13-15,70.3,75,105,112.5,115,115,70,72.5,-75,72.5,140,145,150,150,337.5,SBD,Yes
1,Rage Henderson,M,,2010,13,,IL,Raw,J13-15,82,82.5,-115,115,125,125,65,-82.5,-82.5,65,135,150,160,160,350,SBD,Yes
1,Christopher Jones #13,M,,2006,16,,IL,Raw,J16-17,86.6,90,152.5,162.5,170,170,92.5,97.5,100,100,-207.5,217.5,227.5,227.5,497.5,SBD,Yes
1,Stanton Whitener,M,,2006,17,,IL,Raw,J16-17,95.5,100,142.5,150,-157.5,150,70,85,95,95,142.5,155,-167.5,155,400,SBD,Yes
1,Jacob Hawkins,M,,2003,19,,IN,Raw,J18-19,72.1,75,185,197.5,-205,197.5,102.5,112.5,-120,112.5,-185,202.5,210,210,520,SBD,Yes
2,Dawson Harris,M,,2003,19,,IL,Raw,J18-19,73.2,75,145,165,-180,165,85,95,-102.5,95,185,210,-222.5,210,470,SBD,Yes
1,Colton Gavaza,M,,2005,18,,IL,Raw,J18-19,95.4,100,-205,215,-225,215,115,122.5,-127.5,122.5,-270,272.5,-285,272.5,610,SBD,Yes
1,Scott Baker,M,,2002,20,,IL,Raw,J20-23,67.4,67.5,-152.5,152.5,165,165,92.5,100,-102.5,100,207.5,-220,225,225,490,SBD,Yes
DQ,Andrew Bertman,M,,2001,22,,IL,Raw,J20-23,78.8,82.5,225,232.5,,232.5,140,-142.5,-142.5,140,-260,-260,-260,,,SBD,Yes
1,Brandon Caldwell,M,,1999,23,,IL,Raw,J20-23,85.8,90,210,220,227.5,227.5,-125,125,-127.5,125,-220,230,-240,230,582.5,SBD,Yes
DQ,Hayden Tibbs,M,,2000,22,,IL,Raw,J20-23,88.8,90,-257.5,257.5,272.5,272.5,160,-165,-172.5,160,-247.5,-247.5,-247.5,,,SBD,Yes
1,David Stultz,M,,2001,21,,IL,Raw,J20-23,98,100,-210,-225,225,225,-137.5,137.5,142.5,142.5,-247.5,-247.5,247.5,247.5,615,SBD,Yes
2,Luke Wagner,M,,2001,21,,IL,Raw,J20-23,91.2,100,-190,197.5,-207.5,197.5,120,125,-132.5,125,235,245,252.5,252.5,575,SBD,Yes
3,Cole Wright,M,,2002,21,,IL,Raw,J20-23,98.4,100,195,-207.5,210,210,115,122.5,-130,122.5,212.5,222.5,235,235,567.5,SBD,Yes
1,Graham Lyell,M,,2001,22,,KY,Raw,J20-23,118.5,125,185,205,215,215,142.5,-157.5,-157.5,142.5,185,227.5,235,235,592.5,SBD,Yes
1,Will Sandusky,M,,1980,42,,IL,Raw,M40-44,87.7,90,187.5,200,210,210,122.5,-132.5,-132.5,122.5,200,215,-230,215,547.5,SBD,Yes
1,Ethan Foster,M,,1990,32,,IL,Raw,Open,83.3,90,215,230,232.5,232.5,130,-142.5,-142.5,130,225,245,-265,245,607.5,SBD,Yes
2,Austen Schuknecht,M,,1992,31,,KY,Raw,Open,88.1,90,-165,177.5,180,180,130,-140,-142.5,130,225,-232.5,-247.5,225,535,SBD,Yes
DQ,Hayden Tibbs,M,,2000,22,,IL,Raw,Open,88.8,90,-257.5,257.5,272.5,272.5,160,-165,-172.5,160,-247.5,-247.5,-247.5,,,SBD,Yes
1,Logan Jackson,M,,1992,30,,IL,Raw,Open,99.1,100,215,227.5,240,240,142.5,152.5,-160,152.5,235,-250,,235,627.5,SBD,Yes
1,Jacob Reiter,M,,1998,25,,IL,Raw,Open,107.8,110,220,230,237.5,237.5,-155,160,-172.5,160,252.5,262.5,-272.5,262.5,660,SBD,Yes
2,Ryan Crump,M,,1993,29,,MO,Raw,Open,107.9,110,205,215,220,220,130,137.5,142.5,142.5,220,227.5,-232.5,227.5,590,SBD,Yes
1,Andrew Crouse,M,,1998,24,,IL,Raw,Open,118.1,125,180,195,-205,195,105,112.5,117.5,117.5,255,270,-282.5,270,582.5,SBD,Yes
1,Adam Hickson,M,,1993,30,,IL,Raw,Open,137.1,140,-265,265,277.5,277.5,175,185,,185,265,-272.5,,265,727.5,SBD,Yes
2,Zach Barcroft,M,,1990,33,,IL,Raw,Open,135.1,140,232.5,-240,245,245,175,182.5,-187.5,182.5,267.5,277.5,285,285,712.5,SBD,Yes
1,Dayton Lambert,M,,2007,16,,IL,Wraps,J16-17,66.3,67.5,85,-90,-92.5,85,-56.5,60,-65,60,102.5,122.5,127.5,127.5,272.5,SBD,Yes
1,Caleb Smothers,M,,1998,24,,IL,Wraps,Open,67.2,67.5,200,215,-232.5,215,102.5,105,-107.5,105,230,240,-247.5,240,560,SBD,Yes
