Name,State,Team,Division,BodyweightKg,WeightClassKg,Sex,Equipment,Squat1Kg,Squat2Kg,Squat3Kg,Best3SquatKg,Bench1Kg,Bench2Kg,Bench3Kg,Best3BenchKg,Deadlift1Kg,Deadlift2Kg,Deadlift3Kg,Best3DeadliftKg,TotalKg,Place,Event,BirthDate
Shelby Dahler,WA,WA,FR-SJ,126.1,84+,F,Raw,130,140,150,150,70,77.5,-81,77.5,120,130,-140,130,357.5,1,SBD,
Therese Duong,NSW,NSW,FR-Jr,55.9,57,F,Raw,105,115,122.5,122.5,80,82.5,87.5,87.5,140,150,157.5,157.5,367.5,1,SBD,
Michelle Boulais,NSW,NSW,FR-Jr,60.8,63,F,Raw,92.5,100,102.5,102.5,47.5,50,-52.5,50,120,135,142.5,142.5,295,1,SBD,
Viola Jokudu,NSW,NSW,FR-Jr,67.8,69,F,Raw,132.5,142.5,150,150,77.5,85,90,90,170,-185,190,190,430,1,SBD,
Adwoah Hammond,VIC,VIC,FR-Jr,82.9,84,F,Raw,132.5,142.5,150,150,77.5,82.5,85,85,160,175,-182.5,175,410,1,SBD,
Veronika Vroharis,NSW,NSW,FR-M1,48.9,52,F,Raw,-82.5,-82.5,-82.5,,-40,45,-47.5,45,-112.5,-112.5,-112.5,,,DQ,SBD,
Jenelle Schultz,QLD,QLD,FR-M1,55.6,57,F,Raw,-120,120,-125,120,77.5,80,-82.5,80,152.5,-160,-160,152.5,352.5,1,SBD,
Rowena Flynn,ACT,ACT,FR-M1,56.4,57,F,Raw,95,100,105,105,50,55,-57.5,55,117.5,125,130,130,290,2,SBD,
Merinda O'Brien,QLD,QLD,FR-M1,62.25,63,F,Raw,97.5,105,107.5,107.5,65,70,-72.5,70,145,152.5,160,160,337.5,1,SBD,
Andrea Gledhill,NSW,NSW,FR-M1,66.4,69,F,Raw,-107.5,107.5,112.5,112.5,52.5,55,57.5,57.5,130,140,150,150,320,1,SBD,
Kate Sciffer,QLD,QLD,FR-M1,75.5,76,F,Raw,110,117.5,125,125,67.5,-72.5,-72.5,67.5,130,140,150,150,342.5,1,SBD,
Sarah Wheal,NSW,NSW,FR-M1,75,76,F,Raw,-125,-125,-125,,77.5,82.5,85,85,127.5,135,140,140,,DQ,SBD,
Eveline de Geus,VIC,VIC,FR-M1,83.4,84,F,Raw,102.5,110,115,115,75,80,-82.5,80,145,152.5,157.5,157.5,352.5,1,SBD,
Jennifer Cass,ACT,ACT,FR-M1,82.4,84,F,Raw,110,120,125,125,70,-75,75,75,130,137.5,142.5,142.5,342.5,2,SBD,
Clair Angel,ACT,ACT,FR-M2,55.75,57,F,Raw,92.5,97.5,102.5,102.5,52.5,55,-57.5,55,117.5,127.5,132.5,132.5,290,1,SBD,
Joanna Lawrence,VIC,VIC,FR-M2,62,63,F,Raw,112.5,117.5,120,120,77.5,80,-82.5,80,137.5,145,-150,145,345,1,SBD,
Steph Radovanovic,ACT,ACT,FR-M2,62.65,63,F,Raw,90,100,-105,100,57.5,60,62.5,62.5,132.5,140,145,145,307.5,2,SBD,
Carole Condon,ACT,ACT,FR-M2,75,76,F,Raw,100,107.5,115,115,57.5,60,62.5,62.5,122.5,130,135,135,312.5,1,SBD,
Michelle Russell,NSW,NSW,FR-M2,69.3,76,F,Raw,80,87.5,-90,87.5,52.5,-57.5,-57.5,52.5,105,107.5,110,110,250,2,SBD,
Michelle Popham,QLD,QLD,FR-M2,83.2,84,F,Raw,110,-122.5,122.5,122.5,55,-57.5,-57.5,55,147.5,157.5,163.5,163.5,341,1,SBD,
Helen Trenerry,QLD,QLD,FR-M3,55.25,57,F,Raw,-80,80,90,90,50,55,-57.5,55,120,130,140,140,285,1,SBD,
Teresa Millynn,ACT,ACT,FR-M3,74.65,76,F,Raw,67.5,-72.5,75,75,40,-42.5,42.5,42.5,95,100,105,105,222.5,1,SBD,
Vicky Kijumnuayporn,NSW,NSW,FR-O,46.5,47,F,Raw,120,125,-130,125,85,87.5,90,90,147.5,155,-160,155,370,1,SBD,
Jackie Caldona,WA,WA,FR-O,46.78,47,F,Raw,105,113,115,115,57.5,63,65,65,122.5,-127.5,-127.5,122.5,302.5,2,SBD,
Elizabeth Craven,ACT,ACT,FR-O,51.65,52,F,Raw,137.5,143,147.5,147.5,76,79,81,81,161,171,180,180,408.5,1,SBD,
Pei Boccanfuso,NSW,NSW,FR-O,51.6,52,F,Raw,100,105,-110,105,62.5,65,-67.5,65,120,130,-140,130,300,2,SBD,
Brigot Pugh,QLD,QLD,FR-O,56.55,57,F,Raw,-117.5,-117.5,117.5,117.5,67.5,73,75,75,170,-190,-190,170,362.5,1,SBD,
Rachel Jones #1,NSW,NSW,FR-O,59.5,63,F,Raw,145,155,162.5,162.5,67.5,77.5,82.5,82.5,172.5,182.5,-188.5,182.5,427.5,1,SBD,
Emily Lai,NSW,NSW,FR-O,60.9,63,F,Raw,125,137.5,-142.5,137.5,90.5,97.5,-100,97.5,152.5,162.5,-165,162.5,397.5,2,SBD,
Rebecca Roberts #2,ACT,ACT,FR-O,61.9,63,F,Raw,107.5,115,120,120,60,65,-67.5,65,152.5,162.5,167.5,167.5,352.5,3,SBD,
Rebecca Morrison,QLD,QLD,FR-O,63,63,F,Raw,110,-120,120,120,65,-70,-70,65,130,140,,140,325,4,SBD,
Charlotte Nicholls,VIC,VIC,FR-O,62.1,63,F,Raw,92.5,-100,102.5,102.5,55,60,62.5,62.5,140,150,155,155,320,5,SBD,
Olivia Tickle,NSW,NSW,FR-O,62.6,63,F,Raw,-115,115,-122.5,115,67.5,72.5,75,75,117.5,122.5,127.5,127.5,317.5,6,SBD,
Rachele Griffin,NSW,NSW,FR-O,68.2,69,F,Raw,142.5,150,-155,150,85,90,-92.5,90,167.5,177.5,182.5,182.5,422.5,1,SBD,
Elizabeth Napoli,NSW,NSW Gosford,FR-O,67.7,69,F,Raw,142.5,150,-155,150,90,95.5,-96.5,95.5,167.5,-175,175,175,420.5,2,SBD,
Beci Imbriano,ACT,ACT,FR-O,68,69,F,Raw,127.5,132.5,137.5,137.5,72.5,-77.5,77.5,77.5,152.5,162.5,170,170,385,3,SBD,
Aisha Patel,VIC,VIC,FR-O,68.4,69,F,Raw,125,130,135,135,52.5,55,-57.5,55,152.5,167.5,175,175,365,4,SBD,
Courtney Miller #1,NSW,NSW Gosford,FR-O,76,76,F,Raw,135,145,152.5,152.5,70,75,-77.5,75,150,-160,160,160,387.5,1,SBD,
Nyrie Atkin,ACT,ACT,FR-O,74.3,76,F,Raw,127.5,135,140,140,60,65,-67.5,65,135,142.5,-150,142.5,347.5,2,SBD,
Fiona Shephard,ACT,ACT,FR-O,75.7,76,F,Raw,107.5,115,120,120,72.5,77.5,-80,77.5,135,145,-150,145,342.5,3,SBD,
Cammilla White,NSW,NSW,FR-O,81.4,84,F,Raw,135,137.5,-140,137.5,75,80,82.5,82.5,120,130,142.5,142.5,362.5,1,SBD,
Sherri Ponisi,VIC,VIC,FR-O,83.35,84,F,Raw,115,122.5,130,130,65,72.5,-75,72.5,135,145,150,150,352.5,2,SBD,
Kelly Wanray,QLD,QLD,FR-O,117.2,84+,F,Raw,145,157.5,165,165,90,97.5,-102.5,97.5,180,190,-200,190,452.5,1,SBD,
Rebecca Blenkin,ACT,ACT,FR-O,117.35,84+,F,Raw,147.5,155,162.5,162.5,77.5,82.5,85,85,-155,155,165,165,412.5,2,SBD,
Danielle Cox,VIC,VIC,FR-O,109.7,84+,F,Raw,-165,-165,165,165,77.5,82.5,-87.5,82.5,-160,160,-167.5,160,407.5,3,SBD,
Nekea Blagoev,NSW,NSW,FR-O,108.6,84+,F,Raw,-145,-145,-145,,,,,,,,,,,DQ,SBD,
Benjamin Crowley,ACT,ACT,MR-SJ,59.8,66,M,Raw,100,120,,120,105,110,-112.5,110,100,120,,120,350,1,SBD,
Ashton Riddell,QLD,QLD,MR-SJ,73.7,74,M,Raw,160,170,180,180,95,100,107.5,107.5,216,232.5,250,250,537.5,1,SBD,
Nicholas Muir,QLD,QLD,MR-SJ,73.6,74,M,Raw,140,150,157.5,157.5,100,107.5,-110,107.5,165,177.5,190,190,455,2,SBD,
Obi Olsen,VIC,VIC,MR-SJ,102.7,105,M,Raw,235,250,260,260,157.5,167.5,172.5,172.5,237.5,255,-267.5,255,687.5,1,SBD,
Xander Dahler,WA,WA,MR-SJ,113.02,120,M,Raw,180,200,225,225,90,100,-110,100,180,210,227.5,227.5,552.5,1,SBD,
Lenex Lu,NSW,NSW,MR-Jr,73.7,74,M,Raw,212.5,225,-232.5,225,137.5,-145,-145,137.5,247.5,260,-277.5,260,622.5,1,SBD,
Tyler Edmondson,SA,SA,MR-Jr,73.65,74,M,Raw,190,205,212.5,212.5,120,130,-132.5,130,235,-250,257.5,257.5,600,2,SBD,
Ranier Cortez,NSW,NSW,MR-Jr,82.6,83,M,Raw,212.5,225,237.5,237.5,150,157.5,-165,157.5,255,272.5,287.5,287.5,682.5,1,SBD,
Mitz Metaxas,VIC,VIC,MR-Jr,82.5,83,M,Raw,220,240,-265,240,132.5,140,-145,140,245,260,-275,260,640,2,SBD,
Aydin Pantano,NSW,NSW,MR-Jr,81.6,83,M,Raw,162.5,-175,-180,162.5,132.5,140,147.5,147.5,185,200,212.5,212.5,522.5,3,SBD,
Yianni Mousellis,NSW,NSW,MR-Jr,92.9,93,M,Raw,250,262.5,270.5,270.5,150,160,165,165,270,285,293,293,728.5,1,SBD,
Alexander Fomin,NSW,NSW,MR-Jr,92.9,93,M,Raw,-220,232.5,240,240,165,174,176,176,252.5,270,-272.5,270,686,2,SBD,
Tristan Barbot,NSW,NSW,MR-Jr,91.4,93,M,Raw,180,190,200,200,112.5,120,125,125,195,210,220,220,545,3,SBD,
Harry Hetherington,NSW,NSW,MR-Jr,102.9,105,M,Raw,190,202.5,-207.5,202.5,160,167.5,172.5,172.5,235,247.5,252.5,252.5,627.5,1,SBD,
William Chester,VIC,VIC,MR-Jr,114.5,120,M,Raw,215,227.5,235,235,112.5,117.5,-120,117.5,240,-247.5,247.5,247.5,600,1,SBD,
Martin Smith #3,QLD,QLD,MR-M1,54.9,59,M,Raw,65,75,-80,75,55,60,65,65,-90,90,100,100,240,1,SBD,
Ewan Seaford,NSW,NSW Gosford,MR-M2,80,83,M,Raw,175,185,190,190,-115,-120,120,120,215,235,-240,235,545,2,SBD,
Alexander Le,ACT,ACT,MR-M2,81.45,83,M,Raw,180,190,200,200,110,120,-126,120,210,222.5,235,235,555,1,SBD,
Sean Muir,WA,WA,MR-M2,91.26,93,M,Raw,175,182.5,195,195,117.5,122.5,127.5,127.5,207.5,-225,,207.5,530,1,SBD,
Jack de Leeuw,VIC,VIC,MR-M2,92.55,93,M,Raw,105,112.5,-120,112.5,85,90,92.5,92.5,135,145,155,155,360,2,SBD,
Darren Gillam,ACT,ACT,MR-M2,103.9,105,M,Raw,185,195,205,205,110,115,-120,115,200,212.5,220,220,540,1,SBD,
Russell Bricknell,WA,WA,MR-M2,99.56,105,M,Raw,150,-160,160,160,-85,85,-90,85,200,210,-220,210,455,2,SBD,
Justin Crowley,ACT,ACT,MR-M2,106.35,120,M,Raw,220,,,220,150,155,-160,155,120,,,120,495,1,SBD,
Shaun Cronin,NSW,NSW Gosford,MR-M2,137.8,120+,M,Raw,180,190,195,195,100,105,110,110,160,170,,170,475,1,SBD,
Abbas Pordel,NSW,NSW Gosford,MR-M3,118.65,120,M,Raw,170,185,-193,185,175,185,-191,185,185,205,220,220,590,1,SBD,
Rick Lewis,QLD,QLD,MR-M3,118.45,120,M,Raw,190,-202.5,-202.5,190,-135,-135,-135,,230,242.5,250,250,,DQ,SBD,
Yuki Kashima,NSW,NSW,MR-O,65.9,66,M,Raw,205,-218,218,218,160,-165,165.5,165.5,-220,220,232.5,232.5,616,1,SBD,
Danny Le #1,NSW,NSW,MR-O,65.8,66,M,Raw,192.5,200,205,205,158,161,162.5,162.5,222.5,232.5,-250,232.5,600,2,SBD,
Pramuk Nugara,ACT,ACT,MR-O,65.75,66,M,Raw,165,172.5,-180,172.5,87.5,95,102.5,102.5,185,197.5,210,210,485,3,SBD,
Leonardo Sucitra,WA,WA,MR-O,73.92,74,M,Raw,242.5,263,273,273,147.5,155,-160,155,282.5,300,-310,300,728,1,SBD,
Ethan Mar,QLD,QLD,MR-O,72.85,74,M,Raw,200,207.5,215,215,130,140,-142.5,140,-230,-240,245,245,600,2,SBD,
Joe Matthews,ACT,ACT,MR-O,73.9,74,M,Raw,175,185,192.5,192.5,110,115,117.5,117.5,210,225,-232.5,225,535,3,SBD,
Michael Walsh,NSW,NSW,MR-O,70.6,74,M,Raw,160,167.5,-172.5,167.5,120,127.5,-132.5,127.5,215,225,-232.5,225,520,4,SBD,
Jack Carroll,ACT,ACT,MR-O,70.4,74,M,Raw,115,120,-125,120,80,-87.5,-87.5,80,120,145,155,155,355,5,SBD,
Brian Wakefield,QLD,QLD,MR-O,67.9,74,M,Raw,-75,80,85,85,60,67.5,-72.5,67.5,125,135,145,145,297.5,6,SBD,
Jake Roberts #1,QLD,QLD,MR-O,82.05,83,M,Raw,220,232.5,237.5,237.5,140,145,147.5,147.5,-305.5,305.5,-311,305.5,690.5,1,SBD,
Scott Meiklejohn,QLD,QLD,MR-O,82.75,83,M,Raw,225,242.5,247.5,247.5,157.5,167.5,172.5,172.5,255,270,-280,270,690,2,SBD,
Jacob Mose,NSW,NSW,MR-O,81.7,83,M,Raw,230,240,-242.5,240,140,150,-155,150,240,252.5,260,260,650,3,SBD,
Victor Liu,VIC,VIC,MR-O,82.35,83,M,Raw,225,240,-245,240,130,135,-137.5,135,260,270,275,275,650,4,SBD,
Sankalp Singam,WA,WA,MR-O,82.5,83,M,Raw,192.5,202.5,212.5,212.5,112.5,117.5,122.5,122.5,242.5,-257.5,-257.5,242.5,577.5,5,SBD,
Brody Cochrane,QLD,QLD,MR-O,92.7,93,M,Raw,232.5,240,-245,240,188,193,195.5,195.5,280,305,-307.5,305,740.5,1,SBD,
Tom Chaplin,QLD,QLD,MR-O,92.55,93,M,Raw,250,262.5,267.5,267.5,167.5,172.5,175,175,260,285,-300,285,727.5,2,SBD,
Stephen Lawford,QLD,QLD,MR-O,91.9,93,M,Raw,192.5,205,-215,205,145,155,-162.5,155,220,235,245,245,605,3,SBD,
Mathew Darke,NSW,NSW,MR-O,90.6,93,M,Raw,210,220,227.5,227.5,125,132.5,-137.5,132.5,215,225,-237.5,225,585,4,SBD,
Zak Bosco,NSW,NSW,MR-O,92.5,93,M,Raw,-185,190,200,200,132.5,137.5,-140,137.5,205,220,-232.5,220,557.5,5,SBD,
Chris Aslan,NSW,NSW,MR-O,104,105,M,Raw,242.5,252.5,257.5,257.5,157.5,167.5,172.5,172.5,255,272.5,-277.5,272.5,702.5,1,SBD,
Shaun Highfield,NSW,NSW Gosford,MR-O,103.4,105,M,Raw,200,220,230,230,150,-160,-160,150,240,260,270,270,650,2,SBD,
Michael Cornell,NSW,NSW,MR-O,104.2,105,M,Raw,220,232.5,-242.5,232.5,120,127.5,132.5,132.5,225,240,250,250,615,3,SBD,
Dave Wiseman,NSW,NSW,MR-O,103.4,105,M,Raw,220,230,232.5,232.5,-135,142.5,-150,142.5,210,220,227.5,227.5,602.5,4,SBD,
Sam Butterworth,QLD,QLD,MR-O,119.4,120,M,Raw,265,282.5,290,290,170,177.5,182.5,182.5,310,335,-346,335,807.5,1,SBD,
Iain Brock,QLD,QLD,MR-O,118.65,120,M,Raw,195,210,220,220,150,155,-157.5,155,242.5,260,270,270,645,2,SBD,
Jackson Stubberfield,WA,WA,MR-O,149.22,120+,M,Raw,297.5,312.5,322.5,322.5,197.5,-207.5,-207.5,197.5,295,310,320,320,840,1,SBD,
Rick Morse,QLD,QLD,M-M2,91.6,93,M,Single-ply,195,-202.5,-202.5,195,160,-170,-170,160,190,-197.5,197.5,197.5,552.5,1,SBD,
Patrick Whymark,NSW,NSW Gosford,M-M3,103.6,105,M,Single-ply,-245,250,260,260,130,-167.5,-170,130,215,230,240,240,630,1,SBD,
Abbas Pordel,NSW,NSW,M-M3,117.7,120,M,Single-ply,175,185,192.5,192.5,180,195,-205,195,185,205,220,220,607.5,1,SBD,
Max Bristow,NSW,NSW Gosford,M-M4,70.7,74,M,Single-ply,110,120,130,130,75,82.5,86,86,170,180,-190,180,396,1,SBD,
Colin Webb,QLD,QLD,M-O,92.15,93,M,Single-ply,325,-340,340,340,190,-205,205,205,280,300,310,310,855,1,SBD,
Joanna Lawrence,VIC,VIC,FR-M2,62.35,63,F,Raw,,,,,77.5,-80,80,80,,,,,80,1,B,
Caitlin Barraclough,QLD,QLD,FR-O,68.4,69,F,Raw,,,,,107.5,-115,-117.5,107.5,,,,,107.5,1,B,
Nekea Blagoev,NSW,NSW,FR-O,108.7,84+,F,Raw,,,,,92.5,-95,-95,92.5,,,,,92.5,1,B,
Nick Lintern,NSW,NSW Gosford,MR-M2,121.1,120+,M,Raw,,,,,105,-115,120,120,,,,,120,1,B,
Abbas Pordel,NSW,NSW Gosford,MR-M3,118.5,120,M,Raw,,,,,175,187.5,-193.5,187.5,,,,,187.5,1,B,
Bill Koppe,QLD,QLD,MR-M4,73.35,74,M,Raw,,,,,77.5,82.5,85,85,,,,,85,1,B,
Andrew Caltabiano,NSW,NSW,MR-O,125.9,120+,M,Raw,,,,,220,235,242.5,242.5,,,,,242.5,1,B,
Patrick Whymark,NSW,NSW Gosford,M-M3,103.8,105,M,Single-ply,,,,,-165,170,175,175,,,,,175,1,B,
Ian Sullivan,WA,WA,M-M3,103.6,105,M,Single-ply,,,,,50,60,75,75,,,,,75,2,B,
Abbas Pordel,NSW,NSW,M-M3,118.1,120,M,Single-ply,,,,,185,200,-210,200,,,,,200,1,B,
Lachlan Green,QLD,QLD,M-O,103.9,105,M,Single-ply,,,,,-230,-243,-243,,,,,,,DQ,B,
TJ Straw,QLD,QLD,MR-O,82.85,83,M,Raw,,,,,60,65,-70,65,-125,130,135,135,200,1,BD,
Alexander Dal'Bo,QLD,QLD,MR-O,82.45,83,M,Raw,,,,,-65,-70,70,70,125,-140,-145,125,195,2,BD,
